Chapter 19 FLOX SIF vs VI {flox4} | Exploring the effect of canopy structure on top-of-canopy sun-induced fluorescence
…
            Exploring the effect of canopy structure on top-of-canopy sun-induced fluorescence

Chapter 19 FLOX SIF vs VI {flox4}

continuation of Chapter 11

19.1 sif vi relationship at flox scale

## # A tibble: 738 x 95
##       wl    C0.1    C0.2    C0.3    C0.4   C0.5   C1.1    C1.2    C1.3    C1.4    C1.5    C1.6   P0.1  P0.10   P0.2   P0.3   P0.4
##    <dbl>   <dbl>   <dbl>   <dbl>   <dbl>  <dbl>  <dbl>   <dbl>   <dbl>   <dbl>   <dbl>   <dbl>  <dbl>  <dbl>  <dbl>  <dbl>  <dbl>
##  1  400. 0.00705 0.00771 0.00967 0.00453 0.0165 0.0106 0.00655 0.00936 0.00975 0.00876 0.00679 0.0123 0.0125 0.0114 0.0107 0.0128
##  2  401. 0.00728 0.00756 0.00983 0.00469 0.0162 0.0103 0.00689 0.00959 0.00978 0.00862 0.00714 0.0125 0.0123 0.0112 0.0101 0.0131
##  3  402. 0.00709 0.00808 0.00966 0.00448 0.0161 0.0105 0.00681 0.00923 0.00968 0.00873 0.00704 0.0122 0.0121 0.0112 0.0103 0.0123
##  4  402. 0.00679 0.00774 0.00985 0.00444 0.0165 0.0103 0.00693 0.00932 0.00983 0.00884 0.00666 0.0123 0.0126 0.0109 0.0101 0.0131
##  5  403. 0.00676 0.00754 0.00958 0.00472 0.0158 0.0101 0.00699 0.00941 0.0105  0.00859 0.00708 0.0124 0.0127 0.0113 0.0103 0.0126
##  6  404. 0.00683 0.00790 0.01000 0.00464 0.0159 0.0107 0.00696 0.00931 0.0105  0.00906 0.00704 0.0124 0.0124 0.0117 0.0110 0.0133
##  7  405. 0.00727 0.00771 0.00971 0.00453 0.0163 0.0107 0.00685 0.00937 0.00987 0.00888 0.00710 0.0125 0.0123 0.0109 0.0103 0.0128
##  8  405. 0.00704 0.00755 0.00987 0.00458 0.0162 0.0106 0.00716 0.00936 0.00983 0.00886 0.00688 0.0125 0.0125 0.0108 0.0104 0.0132
##  9  406. 0.00678 0.00783 0.00980 0.00458 0.0164 0.0103 0.00669 0.00955 0.00983 0.00880 0.00687 0.0128 0.0121 0.0112 0.0105 0.0124
## 10  407. 0.00709 0.00816 0.0100  0.00449 0.0165 0.0103 0.00709 0.00938 0.00985 0.00916 0.00676 0.0128 0.0127 0.0113 0.0106 0.0129
## # ... with 728 more rows, and 78 more variables: P0.5 <dbl>, P0.6 <dbl>, P0.7 <dbl>, P0.8 <dbl>, P0.9 <dbl>, P2.1 <dbl>,
## #   P2.10 <dbl>, P2.11 <dbl>, P2.12 <dbl>, P2.13 <dbl>, P2.2 <dbl>, P2.3 <dbl>, P2.4 <dbl>, P2.5 <dbl>, P2.6 <dbl>, P2.7 <dbl>,
## #   P2.8 <dbl>, P2.9 <dbl>, POT0.1 <dbl>, POT0.2 <dbl>, POT0.3 <dbl>, POT0.5 <dbl>, POT0.6 <dbl>, SB0.1 <dbl>, SB0.2 <dbl>,
## #   SB0.3 <dbl>, SB0.4 <dbl>, SB0.5 <dbl>, SB0.6 <dbl>, SB0.7 <dbl>, SB0.8 <dbl>, SB1.1 <dbl>, SB1.2 <dbl>, SB1.3 <dbl>,
## #   SB1.4 <dbl>, SB1.5 <dbl>, SB1.6 <dbl>, SB1.7 <dbl>, SB2.1 <dbl>, SB2.10 <dbl>, SB2.11 <dbl>, SB2.12 <dbl>, SB2.13 <dbl>,
## #   SB2.2 <dbl>, SB2.3 <dbl>, SB2.4 <dbl>, SB2.5 <dbl>, SB2.6 <dbl>, SB2.7 <dbl>, SB2.8 <dbl>, SB2.9 <dbl>, SB3.1 <dbl>,
## #   SB3.10 <dbl>, SB3.11 <dbl>, SB3.12 <dbl>, SB3.13 <dbl>, SB3.2 <dbl>, SB3.3 <dbl>, SB3.4 <dbl>, SB3.5 <dbl>, SB3.7 <dbl>,
## #   SB3.8 <dbl>, SB3.9 <dbl>, SB4.1 <dbl>, SB4.10 <dbl>, SB4.11 <dbl>, SB4.2 <dbl>, SB4.3 <dbl>, SB4.4 <dbl>, SB4.5 <dbl>,
## #   SB4.6 <dbl>, SB4.7 <dbl>, SB4.8 <dbl>, SB4.9 <dbl>, W0.1 <dbl>, W0.2 <dbl>, W0.3 <dbl>, W0.4 <dbl>
…
## # ... with 723 more variables: `411.3` <dbl>, `412` <dbl>, `412.8` <dbl>, `413.5` <dbl>, `414.2` <dbl>, `415` <dbl>,
## #   `415.7` <dbl>, `416.5` <dbl>, `417.2` <dbl>, `417.9` <dbl>, `418.7` <dbl>, `419.4` <dbl>, `420.2` <dbl>, `420.9` <dbl>,
## #   `421.6` <dbl>, `422.4` <dbl>, `423.1` <dbl>, `423.8` <dbl>, `424.6` <dbl>, `425.3` <dbl>, `426.1` <dbl>, `426.8` <dbl>,
## #   `427.5` <dbl>, `428.3` <dbl>, `429` <dbl>, `429.7` <dbl>, `430.5` <dbl>, `431.2` <dbl>, `431.9` <dbl>, `432.7` <dbl>,
## #   `433.4` <dbl>, `434.2` <dbl>, `434.9` <dbl>, `435.6` <dbl>, `436.4` <dbl>, `437.1` <dbl>, `437.8` <dbl>, `438.6` <dbl>,
## #   `439.3` <dbl>, `440` <dbl>, `440.8` <dbl>, `441.5` <dbl>, `442.2` <dbl>, `443` <dbl>, `443.7` <dbl>, `444.4` <dbl>,
## #   `445.2` <dbl>, `445.9` <dbl>, `446.6` <dbl>, `447.4` <dbl>, `448.1` <dbl>, `448.8` <dbl>, `449.6` <dbl>, `450.3` <dbl>,
## #   `451` <dbl>, `451.8` <dbl>, `452.5` <dbl>, `453.2` <dbl>, `453.9` <dbl>, `454.7` <dbl>, `455.4` <dbl>, `456.1` <dbl>,
## #   `456.9` <dbl>, `457.6` <dbl>, `458.3` <dbl>, `459.1` <dbl>, `459.8` <dbl>, `460.5` <dbl>, `461.3` <dbl>, `462` <dbl>,
## #   `462.7` <dbl>, `463.4` <dbl>, `464.2` <dbl>, `464.9` <dbl>, `465.6` <dbl>, `466.4` <dbl>, `467.1` <dbl>, `467.8` <dbl>,
## #   `468.5` <dbl>, `469.3` <dbl>, `470` <dbl>, `470.7` <dbl>, `471.4` <dbl>, `472.2` <dbl>, `472.9` <dbl>, `473.6` <dbl>,
## #   `474.4` <dbl>, `475.1` <dbl>, `475.8` <dbl>, `476.5` <dbl>, `477.3` <dbl>, `478` <dbl>, `478.7` <dbl>, `479.4` <dbl>,
## #   `480.2` <dbl>, `480.9` <dbl>, `481.6` <dbl>, `482.3` <dbl>, `483.1` <dbl>, `483.8` <dbl>, ...

## # A tibble: 94 x 18
##    lu    loc     Cab   Cca     Cdm     Cw   LAI    R480   R550    R670   R700  R800  NIRv  NDVI    SR  TCARI OSAVI   EVI
##    <chr> <chr> <dbl> <dbl>   <dbl>  <dbl> <dbl>   <dbl>  <dbl>   <dbl>  <dbl> <dbl> <dbl> <dbl> <dbl>  <dbl> <dbl> <dbl>
##  1 beet  SB0.1  52.0 13.8  0.00958 0.120    3.2 0.00920 0.0294 0.0128  0.0260 0.264 0.240 0.907 20.6  0.0408 0.667 0.494
##  2 beet  SB0.2  69.1 18.5  0.00892 0.105    2.8 0.0105  0.0291 0.0131  0.0258 0.251 0.226 0.901 19.1  0.0394 0.651 0.475
##  3 beet  SB0.3  41.7  9.91 0.0114  0.0956   1.6 0.0129  0.0268 0.0167  0.0262 0.192 0.161 0.840 11.5  0.0287 0.551 0.366
##  4 beet  SB0.4  64.2 16.0  0.00866 0.115    2.7 0.00590 0.0191 0.00775 0.0173 0.195 0.180 0.923 25.1  0.0294 0.598 0.390
##  5 beet  SB0.5  63.8 17.7  0.00812 0.138    2.9 0.0203  0.0356 0.0273  0.0365 0.223 0.174 0.782  8.17 0.0275 0.553 0.396
##  6 beet  SB0.6  47.0 11.1  0.00761 0.106    2.6 0.0151  0.0308 0.0244  0.0334 0.156 0.114 0.730  6.42 0.0263 0.449 0.277
##  7 beet  SB0.7  73.8 18.1  0.00647 0.110    3.3 0.00947 0.0251 0.0125  0.0229 0.180 0.157 0.870 14.4  0.0318 0.551 0.354
##  8 beet  SB0.8  33.2  7.86 0.00681 0.108    3.1 0.0137  0.0332 0.0203  0.0325 0.192 0.155 0.808  9.42 0.0367 0.534 0.354
##  9 beet  SB1.1  57.7 13.8  0.00723 0.0490   3.8 0.0145  0.0332 0.0220  0.0335 0.171 0.132 0.772  7.76 0.0343 0.489 0.312
## 10 beet  SB1.2  80.5 20.1  0.00742 0.0442   4.2 0.0129  0.0277 0.0184  0.0276 0.170 0.137 0.805  9.26 0.0277 0.505 0.321
## # ... with 84 more rows

## # A tibble: 101 x 6
##    loc       n   SIF_A   SIF_B SIF_A_sd SIF_B_sd
##    <chr> <int>   <dbl>   <dbl>    <dbl>    <dbl>
##  1 A1        7 -0.0309 -0.479    0.0413   0.332 
##  2 C0.1      5  0.967  -0.114    0.0258   0.0462
##  3 C0.2      5  1.06   -0.0581   0.131    0.141 
##  4 C0.3      6  0.771  -0.161    0.0438   0.106 
##  5 C0.4      6  0.778   0.115    0.0454   0.0842
##  6 C0.5      6  0.833  -0.142    0.0593   0.174 
##  7 C1.1      6  0.984  -0.447    0.276    0.226 
##  8 C1.2      5  1.09    0.109    0.0796   0.128 
##  9 C1.3      6  1.04   -0.140    0.129    0.146 
## 10 C1.4      5  0.706  -0.228    0.0554   0.142 
## # ... with 91 more rows
…
