Chapter 11 Development and evaluation of a mobile measurement procedure for TOC SIF | Exploring the effect of canopy structure on top-of-canopy sun-induced fluorescence
…
## # A tibble: 2,914 x 4
##    lu    loc   key   value
##    <chr> <chr> <chr> <dbl>
##  1 beet  SB0.1 Cab    52.0
##  2 beet  SB0.2 Cab    69.1
##  3 beet  SB0.3 Cab    41.7
##  4 beet  SB0.4 Cab    64.2
##  5 beet  SB0.5 Cab    63.8
##  6 beet  SB0.6 Cab    47.0
##  7 beet  SB0.7 Cab    73.8
##  8 beet  SB0.8 Cab    33.2
##  9 beet  SB1.1 Cab    57.7
## 10 beet  SB1.2 Cab    80.5
## # ... with 2,904 more rows
…
